[{
  "buildup": "Wat zeg je tegen een vrouw die helemaal bont en blauw is geslagen, en die zwaar is toegetakeld?",
  "punchline": "Ga je nu luisteren?"
},
  {
    "buildup": "Een appel in de hand houdt de dokter op afstand, maar dan moet je niet missen!",
    "punchline": ""
  },
  {
    "buildup": "Wat is de overeenkomst tussen een man en een fles drinken?",
    "punchline": "Ze zijn allebei leeg vanaf de nek."
  },
  {
    "buildup": "Hoe vermoord een blondje een regenworm?",
    "punchline": "Ze begraaft hem levend!"
  },
  {
    "buildup": "Iemand met beleid ontslaan.",
    "punchline": "Ik weet niet zo goed hoe we het zonder jou moeten redden, maar vanaf volgende week gaan we het toch proberen."
  },
  {
    "buildup": "Sla nooit iemand met een bril.",
    "punchline": "Sla hem met de hand, dat komt harder aan."
  },
  {
    "buildup": "Een man komt bij de bioscoop en koopt een intree kaartje. Eenmaal bij de ingang, loopt de man geïrriteerd terug en koopt nogmaals een kaartje. Dit doet hij nog eens 20 keer. Bij de 20ste keer vraagt het meisje achter de kassa Waarom koopt u nou steeds een nieuw kaartje?",
    "punchline": "Waarop de man antwoordt omdat die lul bij de ingang steeds mijn kaartje verscheurd!"
  },
  {
    "buildup": "Waarom heeft Barbie geen kinderen?",
    "punchline": "Omdat Ken in een andere doos zat."
  },
  {
    "buildup": "Welke tekst vind je terug op de grafsteen van een telefoniste?",
    "punchline": "Opgehangen."
  },
  {
    "buildup": "Met verkering houdt ze een beetje van je, met trouwen houdt ze heel erg veel van je en met de scheiding houdt ze alles van je!",
    "punchline": ""
  },
  {
    "buildup": "Een man komt bij een tovenaar en vraagt. Kunt u misschien een vloek wegnemen die al meer dan 25 jaar geleden over mij is uitgesproken? De tovenaar antwoordt Waarschijnlijk wel, maar dan moet u mij eerst vertellen hoe die vloek luidde.",
    "punchline": "De oude man zegt. En dan verklaar ik u hierbij tot man en vrouw."
  },
  {
    "buildup": "Een dikke en een dunne man lopen over straat, zegt de dikke man tegen de dunne. Als ik naar jou kijk, dan zou ik haast denken dat er in Nederland hongersnood heerst. Waarop de dunnen man geïrriteerd terug antwoordt. En als ik dan naar jou kijk, heb ik het idee dat jij daar de oorzaak van bent!",
    "punchline": ""
  },
  {
    "buildup": "Mijn vrouw zat laatst te zeuren dat ik moest stoppen met al die nutteloze spullen online te kopen.",
    "punchline": "Dus stuurde ik haar terug naar Thailand."
  },
  {
    "buildup": "Ik wil graag dood gaan wanneer ik slaap, net als mijn opa.",
    "punchline": "Niet schreeuwend en in paniek zoals de passagiers die hij vervoerde."
  },
  {
    "buildup": "Wat is een verschil tussen een biertje en een voetbal penalty?",
    "punchline": "Een biertje gaat er wel altijd in!"
  },
  {
    "buildup": "Oma vroeg bij elke bruiloft wanneer ik nu eindelijk aan de beurt was, maar de lol ging er al snel vanaf toen ik hetzelfde ging doen bij begrafenissen!",
    "punchline": ""
  },
  {
    "buildup": "Twee soldaten zitten onder een boom, zegt de ene tegen de andere.",
    "punchline": "We are under a tak."
  },
  {
    "buildup": "Een boef krijgt de elektrische stoel als straf vanwege vele gruwelijke daden. Op het moment dat het gaat gebeuren vraagt de agent aan de boef. Heb je nog een laatste wens voordat we je elektrocuteren?",
    "punchline": "Waarop de boef zegt. Mag ik misschien je handje vasthouden?"
  },
  {
    "buildup": "Wat is hebben een prostituee en bungeejumpen gemeen?",
    "punchline": "Het is net zo duur, je geniet er ongeveer net zolang van en als het rubber knapt ben je de lul."
  },
  {
    "buildup": "Waarom gooit een dom blondje haar dobbelsteen tegen het plafond?",
    "punchline": "Wie het hoogst gooit mag beginnen!"
  },
  {
    "buildup": "Twee domme blondjes lopen samen over straat. Zegt het ene domme blondje tegen de andere. Ik heb vandaag een zwangerschapstest gedaan. Waarop het andere blondje zegt.",
    "punchline": "Oh, waren het moeilijke vragen?"
  },
  {
    "buildup": "Er scheurt een man asociaal hard over de snel weg. Zodra de politie een achtervolging wilt starten, gaat de man alleen maar harder en harder rijden. Uiteindelijk weet de politie hem toch staande te houden. De politieagent vraagt. Waarom rijdt u zo hard?” “Nou”, zegt de man verschrikt.",
    "punchline": "Van de week is mijn vrouw er vandoor gegaan met een politieagent. Ik was bang dat je haar terug kwam brengen."
  },
  {
    "buildup": "Een Belg werkt als reparateur van deurbellen bij een bedrijf. Wanneer hij terug komt van zijn eerste klus zegt zijn baas. Zozo, dat heb je snel voor elkaar gekregen. Waarop de belg zegt. Ik heb niets gedaan. Ik heb wel 6 keer aangebeld, maar ze deden niet open.",
    "punchline": ""
  },
  {
    "buildup": "Een Belg loopt over een Nederlandse begraafplaats. De Belg leest de tekst op één van de grafstenen en leest. Kees van Hoeven, een trouwe man en een perfecte vader. Waarbij de Belg denkt.",
    "punchline": "Dat is zonde, die zuinige Nederlanders ook. Gooien ze gewoon eventjes 3 mannen in één graf!"
  },
  {
    "buildup": "Wat moet je doen als een Belg een handgranaat naar je toe gooit?",
    "punchline": "De pin eruit halen en de handgranaat snel terug gooien."
  },
  {
    "buildup": "Het is geel en ligt zwaar op je maag?",
    "punchline" : "een bulldozer."
  },
  {
    "buildup": "het is geel maar je ziet het niet?",
    "punchline" : "een banaan om de hoek."
  },
  {
    "buildup": "Waarom kaarten de Beatles nooit?",
    "punchline" : "Paul me kaartnie!"
  },
  {
    "buildup": "Wat is het verschil tussen poep en diarree",
    "punchline" : "diarree kun je gorchelen"
  },
  {
    "buildup": "wat is een overeenkomst tussen je billen en de woestijn",
    "punchline" : "kaktussen"
  }
]